{
  "info": {
    "_postman_id": "063f2c01-830f-40fd-af72-83adf1d0dcd4",
    "name": "CPhase-2",
    "schema": "https://schema.getpostman.com/json/collection/v2.0.0/collection.json"
  },
  "item": [
    {
      "name": "GET",
      "item": [
        {
          "name": "start",
          "event": [
            {
              "listen": "test",
              "script": {
                "id": "7bb76f2f-4043-45c9-9fb9-71a43a48abc5",
                "exec": [
                  "console.log(\"Start\")"
                ],
                "type": "text/javascript"
              }
            }
          ],
          "id": "7d9c95e7-65df-4b24-b561-b9c1467c5906",
          "protocolProfileBehavior": {
            "disableBodyPruning": true
          },
          "request": {
            "method": "GET",
            "header": [],
            "url": {
              "raw": "{{host_url}}/api/users?page=2",
              "host": [
                "{{host_url}}"
              ],
              "path": [
                "api",
                "users"
              ],
              "query": [
                {
                  "key": "page",
                  "value": "2"
                }
              ]
            }
          },
          "response": [
            {
              "id": "1ac11095-ebda-4142-9dd2-034eb484c9b5",
              "name": "start",
              "originalRequest": {
                "method": "GET",
                "header": [],
                "url": {
                  "raw": "{{host_url}}/api/users?page=2",
                  "host": [
                    "{{host_url}}"
                  ],
                  "path": [
                    "api",
                    "users"
                  ],
                  "query": [
                    {
                      "key": "page",
                      "value": "2"
                    }
                  ]
                }
              },
              "_postman_previewlanguage": null,
              "header": null,
              "cookie": [],
              "responseTime": null,
              "body": null
            }
          ]
        },
        {
          "name": "common",
          "event": [
            {
              "listen": "prerequest",
              "script": {
                "id": "54109bf4-ad27-4c36-afbb-0c3770b47499",
                "exec": [
                  "console.log(\"FIRST GET COMMON\");"
                ],
                "type": "text/javascript"
              }
            }
          ],
          "id": "072c87d4-3822-4fb7-8086-c6b865c2589c",
          "protocolProfileBehavior": {
            "disableBodyPruning": true
          },
          "request": {
            "method": "GET",
            "header": [],
            "url": {
              "raw": "{{host_url}}/api/users?page=2",
              "host": [
                "{{host_url}}"
              ],
              "path": [
                "api",
                "users"
              ],
              "query": [
                {
                  "key": "page",
                  "value": "2"
                }
              ]
            }
          },
          "response": [
            {
              "id": "defcd967-a0e8-4ae1-b5d5-73615033c58f",
              "name": "common",
              "originalRequest": {
                "method": "GET",
                "header": [],
                "url": {
                  "raw": "{{host_url}}/api/users?page=2",
                  "host": [
                    "{{host_url}}"
                  ],
                  "path": [
                    "api",
                    "users"
                  ],
                  "query": [
                    {
                      "key": "page",
                      "value": "2"
                    }
                  ]
                }
              },
              "status": "OK",
              "code": 200,
              "_postman_previewlanguage": "json",
              "header": [
                {
                  "key": "Date",
                  "value": "Thu, 21 Oct 2021 07:31:00 GMT"
                },
                {
                  "key": "Content-Type",
                  "value": "application/json; charset=utf-8"
                },
                {
                  "key": "Transfer-Encoding",
                  "value": "chunked"
                },
                {
                  "key": "Connection",
                  "value": "keep-alive"
                },
                {
                  "key": "x-powered-by",
                  "value": "Express"
                },
                {
                  "key": "access-control-allow-origin",
                  "value": "*"
                },
                {
                  "key": "etag",
                  "value": "W/\"406-ut0vzoCuidvyMf8arZpMpJ6ZRDw\""
                },
                {
                  "key": "via",
                  "value": "1.1 vegur"
                },
                {
                  "key": "Cache-Control",
                  "value": "max-age=14400"
                },
                {
                  "key": "CF-Cache-Status",
                  "value": "HIT"
                },
                {
                  "key": "Age",
                  "value": "4600"
                },
                {
                  "key": "Expect-CT",
                  "value": "max-age=604800, report-uri=\"https://report-uri.cloudflare.com/cdn-cgi/beacon/expect-ct\""
                },
                {
                  "key": "Report-To",
                  "value": "{\"endpoints\":[{\"url\":\"https:\\/\\/a.nel.cloudflare.com\\/report\\/v3?s=RZSTNl0WWxRHbaKvmzs0BmuqYoT30UQUe2ITLLqmS9vX8rlCG%2BHJ67nlzEZFSCHTiBo%2Br6TTg%2F6bHUz8c9XBFO5%2Fsovd5P%2FEvhQovlfC0eFmNWVyadxPwEZeKy4%3D\"}],\"group\":\"cf-nel\",\"max_age\":604800}"
                },
                {
                  "key": "NEL",
                  "value": "{\"success_fraction\":0,\"report_to\":\"cf-nel\",\"max_age\":604800}"
                },
                {
                  "key": "Vary",
                  "value": "Accept-Encoding"
                },
                {
                  "key": "Server",
                  "value": "cloudflare"
                },
                {
                  "key": "CF-RAY",
                  "value": "6a18c8a9597d57f1-IAD"
                },
                {
                  "key": "Content-Encoding",
                  "value": "br"
                },
                {
                  "key": "alt-svc",
                  "value": "h3=\":443\"; ma=86400, h3-29=\":443\"; ma=86400, h3-28=\":443\"; ma=86400, h3-27=\":443\"; ma=86400"
                }
              ],
              "cookie": [],
              "responseTime": null,
              "body": "{\n    \"page\": 2,\n    \"per_page\": 6,\n    \"total\": 12,\n    \"total_pages\": 2,\n    \"data\": [\n        {\n            \"id\": 7,\n            \"email\": \"michael.lawson@reqres.in\",\n            \"first_name\": \"Michael\",\n            \"last_name\": \"Lawson\",\n            \"avatar\": \"https://reqres.in/img/faces/7-image.jpg\"\n        },\n        {\n            \"id\": 8,\n            \"email\": \"lindsay.ferguson@reqres.in\",\n            \"first_name\": \"Lindsay\",\n            \"last_name\": \"Ferguson\",\n            \"avatar\": \"https://reqres.in/img/faces/8-image.jpg\"\n        },\n        {\n            \"id\": 9,\n            \"email\": \"tobias.funke@reqres.in\",\n            \"first_name\": \"Tobias\",\n            \"last_name\": \"Funke\",\n            \"avatar\": \"https://reqres.in/img/faces/9-image.jpg\"\n        },\n        {\n            \"id\": 10,\n            \"email\": \"byron.fields@reqres.in\",\n            \"first_name\": \"Byron\",\n            \"last_name\": \"Fields\",\n            \"avatar\": \"https://reqres.in/img/faces/10-image.jpg\"\n        },\n        {\n            \"id\": 11,\n            \"email\": \"george.edwards@reqres.in\",\n            \"first_name\": \"George\",\n            \"last_name\": \"Edwards\",\n            \"avatar\": \"https://reqres.in/img/faces/11-image.jpg\"\n        },\n        {\n            \"id\": 12,\n            \"email\": \"rachel.howell@reqres.in\",\n            \"first_name\": \"Rachel\",\n            \"last_name\": \"Howell\",\n            \"avatar\": \"https://reqres.in/img/faces/12-image.jpg\"\n        }\n    ],\n    \"support\": {\n        \"url\": \"https://reqres.in/#support-heading\",\n        \"text\": \"To keep ReqRes free, contributions towards server costs are appreciated!\"\n    }\n}"
            }
          ]
        },
        {
          "name": "get-t1",
          "event": [
            {
              "listen": "prerequest",
              "script": {
                "id": "290597d9-8cda-4b7c-be5e-def7f76e12a9",
                "exec": [
                  "console.log(\"get-t1\");"
                ],
                "type": "text/javascript"
              }
            },
            {
              "listen": "test",
              "script": {
                "id": "a0ffb913-d843-47a8-87e1-c45a64dd86f2",
                "exec": [
                  "postman.setNextRequest(\".//common\");"
                ],
                "type": "text/javascript"
              }
            }
          ],
          "id": "1b98288e-4c88-454e-b9ac-de6fed303baf",
          "protocolProfileBehavior": {
            "disableBodyPruning": true
          },
          "request": {
            "method": "GET",
            "header": [],
            "url": {
              "raw": "{{host_url}}/api/users?page=2",
              "host": [
                "{{host_url}}"
              ],
              "path": [
                "api",
                "users"
              ],
              "query": [
                {
                  "key": "page",
                  "value": "2"
                }
              ]
            }
          },
          "response": [
            {
              "id": "d9704c64-283b-4539-8e01-d1bf198809e2",
              "name": "get-t1",
              "originalRequest": {
                "method": "GET",
                "header": [],
                "url": {
                  "raw": "{{host_url}}/api/users?page=2",
                  "host": [
                    "{{host_url}}"
                  ],
                  "path": [
                    "api",
                    "users"
                  ],
                  "query": [
                    {
                      "key": "page",
                      "value": "2"
                    }
                  ]
                }
              },
              "status": "OK",
              "code": 200,
              "_postman_previewlanguage": "json",
              "header": [
                {
                  "key": "Date",
                  "value": "Thu, 21 Oct 2021 07:31:18 GMT"
                },
                {
                  "key": "Content-Type",
                  "value": "application/json; charset=utf-8"
                },
                {
                  "key": "Transfer-Encoding",
                  "value": "chunked"
                },
                {
                  "key": "Connection",
                  "value": "keep-alive"
                },
                {
                  "key": "x-powered-by",
                  "value": "Express"
                },
                {
                  "key": "access-control-allow-origin",
                  "value": "*"
                },
                {
                  "key": "etag",
                  "value": "W/\"406-ut0vzoCuidvyMf8arZpMpJ6ZRDw\""
                },
                {
                  "key": "via",
                  "value": "1.1 vegur"
                },
                {
                  "key": "Cache-Control",
                  "value": "max-age=14400"
                },
                {
                  "key": "CF-Cache-Status",
                  "value": "HIT"
                },
                {
                  "key": "Age",
                  "value": "3563"
                },
                {
                  "key": "Expect-CT",
                  "value": "max-age=604800, report-uri=\"https://report-uri.cloudflare.com/cdn-cgi/beacon/expect-ct\""
                },
                {
                  "key": "Report-To",
                  "value": "{\"endpoints\":[{\"url\":\"https:\\/\\/a.nel.cloudflare.com\\/report\\/v3?s=jCDNJoy2UOPLquVa79zUGr3%2BQAFLre6CWXB8hOjgzx7TK8lVY1V6HDumI9zFGUln9sJVLtSH1aP0MoMNSWwvO9wZaiPLg1uAJchRXdj9kEF0NOBTyxpjtGgaals%3D\"}],\"group\":\"cf-nel\",\"max_age\":604800}"
                },
                {
                  "key": "NEL",
                  "value": "{\"success_fraction\":0,\"report_to\":\"cf-nel\",\"max_age\":604800}"
                },
                {
                  "key": "Vary",
                  "value": "Accept-Encoding"
                },
                {
                  "key": "Server",
                  "value": "cloudflare"
                },
                {
                  "key": "CF-RAY",
                  "value": "6a18c91b8cd0596e-IAD"
                },
                {
                  "key": "Content-Encoding",
                  "value": "br"
                },
                {
                  "key": "alt-svc",
                  "value": "h3=\":443\"; ma=86400, h3-29=\":443\"; ma=86400, h3-28=\":443\"; ma=86400, h3-27=\":443\"; ma=86400"
                }
              ],
              "cookie": [],
              "responseTime": null,
              "body": "{\n    \"page\": 2,\n    \"per_page\": 6,\n    \"total\": 12,\n    \"total_pages\": 2,\n    \"data\": [\n        {\n            \"id\": 7,\n            \"email\": \"michael.lawson@reqres.in\",\n            \"first_name\": \"Michael\",\n            \"last_name\": \"Lawson\",\n            \"avatar\": \"https://reqres.in/img/faces/7-image.jpg\"\n        },\n        {\n            \"id\": 8,\n            \"email\": \"lindsay.ferguson@reqres.in\",\n            \"first_name\": \"Lindsay\",\n            \"last_name\": \"Ferguson\",\n            \"avatar\": \"https://reqres.in/img/faces/8-image.jpg\"\n        },\n        {\n            \"id\": 9,\n            \"email\": \"tobias.funke@reqres.in\",\n            \"first_name\": \"Tobias\",\n            \"last_name\": \"Funke\",\n            \"avatar\": \"https://reqres.in/img/faces/9-image.jpg\"\n        },\n        {\n            \"id\": 10,\n            \"email\": \"byron.fields@reqres.in\",\n            \"first_name\": \"Byron\",\n            \"last_name\": \"Fields\",\n            \"avatar\": \"https://reqres.in/img/faces/10-image.jpg\"\n        },\n        {\n            \"id\": 11,\n            \"email\": \"george.edwards@reqres.in\",\n            \"first_name\": \"George\",\n            \"last_name\": \"Edwards\",\n            \"avatar\": \"https://reqres.in/img/faces/11-image.jpg\"\n        },\n        {\n            \"id\": 12,\n            \"email\": \"rachel.howell@reqres.in\",\n            \"first_name\": \"Rachel\",\n            \"last_name\": \"Howell\",\n            \"avatar\": \"https://reqres.in/img/faces/12-image.jpg\"\n        }\n    ],\n    \"support\": {\n        \"url\": \"https://reqres.in/#support-heading\",\n        \"text\": \"To keep ReqRes free, contributions towards server costs are appreciated!\"\n    }\n}"
            }
          ]
        },
        {
          "name": "get-t2",
          "event": [
            {
              "listen": "prerequest",
              "script": {
                "id": "8b9c3a36-eb42-490d-a792-060606e501f7",
                "exec": [
                  "console.log(\"get-t2\");"
                ],
                "type": "text/javascript"
              }
            }
          ],
          "id": "ff7fb73d-5843-4031-b8f6-2d9a35abff2e",
          "protocolProfileBehavior": {
            "disableBodyPruning": true
          },
          "request": {
            "method": "GET",
            "header": [],
            "url": {
              "raw": "{{host_url}}/api/users?page=2",
              "host": [
                "{{host_url}}"
              ],
              "path": [
                "api",
                "users"
              ],
              "query": [
                {
                  "key": "page",
                  "value": "2"
                }
              ]
            }
          },
          "response": []
        },
        {
          "name": "common",
          "event": [
            {
              "listen": "prerequest",
              "script": {
                "id": "43ad8b3f-01a6-4625-bae0-f5ecc5358dc3",
                "exec": [
                  "console.log(\"GET COMMON\");"
                ],
                "type": "text/javascript"
              }
            }
          ],
          "id": "8ad970db-0dd0-4ad3-b77c-1fedfbdbfd39",
          "protocolProfileBehavior": {
            "disableBodyPruning": true
          },
          "request": {
            "method": "GET",
            "header": [],
            "url": {
              "raw": "{{host_url}}/api/users?page=1",
              "host": [
                "{{host_url}}"
              ],
              "path": [
                "api",
                "users"
              ],
              "query": [
                {
                  "key": "page",
                  "value": "1"
                }
              ]
            }
          },
          "response": []
        }
      ],
      "id": "e7e06be3-9c86-4ab0-8e5d-a0509b7f6bdf"
    },
    {
      "name": "POST",
      "item": [
        {
          "name": "post-t1",
          "event": [
            {
              "listen": "prerequest",
              "script": {
                "id": "0ad8e60e-b62a-425c-8472-df9d0d38bbac",
                "exec": [
                  "console.log(\"post-t1\");"
                ],
                "type": "text/javascript"
              }
            }
          ],
          "id": "1df64f91-d998-4e6e-b258-9142e02cc52d",
          "protocolProfileBehavior": {
            "disableBodyPruning": true
          },
          "request": {
            "method": "GET",
            "header": [],
            "url": {
              "raw": "{{host_url}}/api/users?page=2",
              "host": [
                "{{host_url}}"
              ],
              "path": [
                "api",
                "users"
              ],
              "query": [
                {
                  "key": "page",
                  "value": "2"
                }
              ]
            }
          },
          "response": []
        },
        {
          "name": "post-t2",
          "event": [
            {
              "listen": "prerequest",
              "script": {
                "id": "67e9bd09-5821-42ef-9ef8-10a3ca516133",
                "exec": [
                  "console.log(\"post-t2\");"
                ],
                "type": "text/javascript"
              }
            }
          ],
          "id": "ee68d75b-14f5-42d1-b66e-62a3abef3a8e",
          "protocolProfileBehavior": {
            "disableBodyPruning": true
          },
          "request": {
            "method": "GET",
            "header": [],
            "url": {
              "raw": "{{host_url}}/api/users?page=2",
              "host": [
                "{{host_url}}"
              ],
              "path": [
                "api",
                "users"
              ],
              "query": [
                {
                  "key": "page",
                  "value": "2"
                }
              ]
            }
          },
          "response": []
        },
        {
          "name": "common",
          "event": [
            {
              "listen": "prerequest",
              "script": {
                "id": "92ae303e-f5b7-4408-9991-30a0d5aef504",
                "exec": [
                  "console.log(\"POST COMMON\");"
                ],
                "type": "text/javascript"
              }
            }
          ],
          "id": "f3125b68-d30b-4621-a65c-1c901db8477d",
          "protocolProfileBehavior": {
            "disableBodyPruning": true
          },
          "request": {
            "method": "GET",
            "header": [],
            "url": {
              "raw": "{{host_url}}/api/users?page=2",
              "host": [
                "{{host_url}}"
              ],
              "path": [
                "api",
                "users"
              ],
              "query": [
                {
                  "key": "page",
                  "value": "2"
                }
              ]
            }
          },
          "response": []
        }
      ],
      "id": "dbb88825-21cb-472f-be39-90ade4d6eb66"
    },
    {
      "name": "common",
      "event": [
        {
          "listen": "prerequest",
          "script": {
            "id": "ed7f4b2c-6494-4e49-bc16-e8c2cee55465",
            "exec": [
              "console.log(\"Collection COMMON\");"
            ],
            "type": "text/javascript"
          }
        },
        {
          "listen": "test",
          "script": {
            "id": "7e3f3503-7724-4d82-9e40-2053a1f53811",
            "exec": [
              "console.log(\"Collection COMMON Test\");\r",
              "pm.test(\"Status code is 200\", function () {\r",
              "    pm.response.to.have.status(200);\r",
              "});"
            ],
            "type": "text/javascript"
          }
        }
      ],
      "id": "f0441cae-da47-47df-9042-e497072c93ae",
      "protocolProfileBehavior": {
        "disableBodyPruning": true
      },
      "request": {
        "method": "GET",
        "header": [],
        "url": {
          "raw": "{{host_url}}/api/users?page=2",
          "host": [
            "{{host_url}}"
          ],
          "path": [
            "api",
            "users"
          ],
          "query": [
            {
              "key": "page",
              "value": "2"
            }
          ]
        }
      },
      "response": []
    }
  ],
  "event": [
    {
      "listen": "prerequest",
      "script": {
        "id": "b9e62fb2-d2c9-452d-92b1-91b251663bdc",
        "type": "text/javascript",
        "exec": [
          ""
        ]
      }
    },
    {
      "listen": "test",
      "script": {
        "id": "941d55af-115e-43c8-b86b-f3a12e95f42d",
        "type": "text/javascript",
        "exec": [
          ""
        ]
      }
    }
  ],
  "variable": [
    {
      "id": "30f19223-ee08-4c39-b8da-572f7ae6cb6c",
      "key": "host_url",
      "value": ""
    }
  ]
}