{
  "info": {
    "_postman_id": "a63352a5-003f-4801-b3b9-3e24c7bcef00",
    "name": "CPhase-1",
    "schema": "https://schema.getpostman.com/json/collection/v2.0.0/collection.json"
  },
  "item": [
    {
      "name": "GET",
      "item": [
        {
          "name": "Phase 1 Request",
          "event": [
            {
              "listen": "test",
              "script": {
                "id": "1fdfdf79-9b87-41a1-9689-0c736600b78c",
                "exec": [
                  "console.log(\"Hello World !!\");\r",
                  "//postman.setNextRequest(\"u\");\r",
                  "let urlVar = pm.variables.get(\"host_url\");\r",
                  "\r",
                  "pm.variables.set(\"Age\",21);\r",
                  "\r",
                  "console.log(pm.globals.get(\"Name\"));\r",
                  "console.log(pm.variables.get(\"host_url\"));\r",
                  "console.log(pm.variables.get(\"Profile\"));\r",
                  "//console.log(pm.variables.get(\"Age\"));\r",
                  "pm.test(\"Status code is 200\", function () {\r",
                  "    pm.response.to.have.status(200);\r",
                  "});\r",
                  "/*\r",
                  "pm.test(\"Response time is less than 200ms\", function () {\r",
                  "    pm.expect(pm.response.responseTime).to.be.below(600);\r",
                  "});*/\r",
                  "postman.setNextRequest(\"RegisterUser\");"
                ],
                "type": "text/javascript"
              }
            },
            {
              "listen": "prerequest",
              "script": {
                "id": "5f1511f0-ca30-4636-b52e-d97d8c2a9920",
                "exec": [
                  "//console.log(\"I am in 'Pre-request Script'\");\r",
                  "//console.info(\"Govind Bhardwaj\");\r",
                  "//console.warn(\"Warning!! \");\r",
                  "//console.error(\"ERROR !!\")"
                ],
                "type": "text/javascript"
              }
            }
          ],
          "id": "c6fe06f4-265e-4f16-be79-e36b2252028f",
          "protocolProfileBehavior": {
            "disableBodyPruning": true
          },
          "request": {
            "method": "GET",
            "header": [],
            "body": {
              "mode": "formdata",
              "formdata": []
            },
            "url": {
              "raw": "{{host_url}}/api/users?page=2",
              "host": [
                "{{host_url}}"
              ],
              "path": [
                "api",
                "users"
              ],
              "query": [
                {
                  "key": "page",
                  "value": "2"
                }
              ]
            }
          },
          "response": []
        },
        {
          "name": "t1",
          "event": [
            {
              "listen": "test",
              "script": {
                "id": "ffe16391-7c54-4efd-9516-df102574004d",
                "exec": [
                  "console.log(\"t1 !!\");"
                ],
                "type": "text/javascript"
              }
            }
          ],
          "id": "553ab7c5-f28b-4e3f-bf33-96ea72d3ee29",
          "protocolProfileBehavior": {
            "disableBodyPruning": true
          },
          "request": {
            "method": "GET",
            "header": [],
            "url": {
              "raw": "{{host_url}}/api/users?page=2",
              "host": [
                "{{host_url}}"
              ],
              "path": [
                "api",
                "users"
              ],
              "query": [
                {
                  "key": "page",
                  "value": "2"
                }
              ]
            }
          },
          "response": []
        },
        {
          "name": "RegisterUser",
          "event": [
            {
              "listen": "prerequest",
              "script": {
                "id": "90df01b5-6760-4f9f-a7a8-b2ab293d832f",
                "exec": [
                  "console.log(\"GET Register !!\");"
                ],
                "type": "text/javascript"
              }
            }
          ],
          "id": "09277f13-8991-4294-9457-2872e13d5004",
          "protocolProfileBehavior": {
            "disableBodyPruning": true
          },
          "request": {
            "method": "GET",
            "header": [],
            "url": {
              "raw": "{{host_url}}/api/users?page=2",
              "host": [
                "{{host_url}}"
              ],
              "path": [
                "api",
                "users"
              ],
              "query": [
                {
                  "key": "page",
                  "value": "2"
                }
              ]
            }
          },
          "response": []
        }
      ],
      "id": "c2a99f2a-1b16-40b1-83dd-c09936bcacaa"
    },
    {
      "name": "Post",
      "item": [
        {
          "name": "Phase 1 Request For POST",
          "id": "7e159f73-7218-4a8b-a847-95cc253705fa",
          "protocolProfileBehavior": {
            "disableBodyPruning": true
          },
          "request": {
            "method": "POST",
            "header": [],
            "url": {
              "raw": "{{host_url}}/api/users?page=2",
              "host": [
                "{{host_url}}"
              ],
              "path": [
                "api",
                "users"
              ],
              "query": [
                {
                  "key": "page",
                  "value": "2"
                }
              ]
            }
          },
          "response": []
        },
        {
          "name": "RegisterUser",
          "event": [
            {
              "listen": "prerequest",
              "script": {
                "id": "87e4478b-4d42-4fbd-a32a-96ed1223dc06",
                "exec": [
                  "console.log(\"POST Register !!\");"
                ],
                "type": "text/javascript"
              }
            }
          ],
          "id": "d407305f-c4ce-4847-92ac-44871f98ad0b",
          "protocolProfileBehavior": {
            "disableBodyPruning": true
          },
          "request": {
            "method": "POST",
            "header": [
              {
                "key": "Content-Type",
                "value": "application/json",
                "type": "text"
              }
            ],
            "body": {
              "mode": "raw",
              "raw": "{\r\n    \"email\": \"{{email}}\",\r\n    \"password\": \"{{password}}\"\r\n}"
            },
            "url": "{{host_url}}/api/register"
          },
          "response": []
        }
      ],
      "id": "f1f42835-fcc7-4c4e-af81-a9c1a5605a42"
    },
    {
      "name": "New Request",
      "id": "09d6845e-8ee5-4188-8b54-742393b24e0d",
      "protocolProfileBehavior": {
        "disableBodyPruning": true
      },
      "request": {
        "method": "GET",
        "header": [],
        "url": null
      },
      "response": []
    }
  ],
  "event": [
    {
      "listen": "prerequest",
      "script": {
        "id": "f629fd7a-5463-43d2-ad8b-2eb36d3b9e6b",
        "type": "text/javascript",
        "exec": [
          ""
        ]
      }
    },
    {
      "listen": "test",
      "script": {
        "id": "449ba93c-d4a2-4bc4-9c8c-5b4f8a04c885",
        "type": "text/javascript",
        "exec": [
          ""
        ]
      }
    }
  ],
  "variable": [
    {
      "id": "f6dc29f7-0117-41af-a59c-9ca4e0d803e9",
      "key": "host_url",
      "value": "https://reqres.in"
    }
  ]
}